^C:\USERS\SLEK\SOURCE\REPOS\SKILLBOX\17\MODULE 7\MODULE 7.CPP
C:\USERS\SLEK\SOURCE\REPOS\SKILLBOX\17\MODULE 7\DEBUG\VC142.PDB
C:\USERS\SLEK\SOURCE\REPOS\SKILLBOX\17\MODULE 7\DEBUG\VC142.IDB
C:\USERS\SLEK\SOURCE\REPOS\SKILLBOX\17\MODULE 7\DEBUG\MODULE 7.OBJ
